<svg width="41" height="40" viewBox="0 0 41 40" fill="none" xmlns="http://www.w3.org/2000/svg">
<path d="M20.601 20.1735L17.0301 25M20.601 20.1735L24.173 25M20.601 20.1735V14.5M20.601 20.1735L25.6016 17.4796M20.601 20.1735L15.6016 17.4796" stroke="#585858"/>
<path d="M6.10097 20.1735L2.17299 25M6.10097 20.1735L10.0301 25M6.10097 20.1735L6.10156 14.5M6.10097 20.1735L11.6016 17.4796M6.10097 20.1735L0.601562 17.4796" stroke="#585858"/>
<path d="M35.101 20.1735L31.173 25M35.101 20.1735L39.0301 25M35.101 20.1735V14.5M35.101 20.1735L40.6016 17.4796M35.101 20.1735L29.6016 17.4796" stroke="#585858"/>
</svg>
